<?xml version="1.0" encoding="utf-8"?>
<svg viewBox="0 0 500 500" xmlns="http://www.w3.org/2000/svg">
  <defs>
    <linearGradient gradientUnits="userSpaceOnUse" x1="250" y1="100.04" x2="250" y2="400" id="gradient-0">
      <stop offset="0" style="stop-color: rgb(28.627% 70.98% 75.686%)"/>
      <stop offset="1" style="stop-color: rgb(0% 42.881% 47.515%)"/>
    </linearGradient>
  </defs>
  <ellipse style="stroke: rgb(0, 0, 0); fill-opacity: 0.48; fill: rgb(255, 255, 255);" cx="248.789" cy="249.933" rx="203.983" ry="203.983"/>
  <polygon style="stroke: rgb(0, 0, 0); fill: url('#gradient-0');" points="250.404 100.04 146.555 400 250.673 300 353.445 400"/>
</svg>